{
  "extras": [
    "lazyvim.plugins.extras.lang.json",
    "lazyvim.plugins.extras.lang.python",
    "lazyvim.plugins.extras.lang.toml",
    "lazyvim.plugins.extras.lang.yaml",
    "lazyvim.plugins.extras.ui.mini-indentscope",
    "lazyvim.plugins.extras.util.mini-hipatterns",
    "lazyvim.plugins.extras.util.project",
    "lazyvim.plugins.extras.util.startuptime"
  ],
  "news": {
    "NEWS.md": "5204"
  },
  "version": 6
}